{
  "status":"ok",
  "message":"Lista de los items",
  "listItems": [
    {
      "id":"1",
      "name":"name 1 ",
      "urlImg":"http://192.168.1.17/example-modular/img/1.jpg",
      "status":"1"
    },
    {
      "id":"2",
      "name":"name 2",
      "urlImg":"http://192.168.1.17/example-modular/img/2.jpg",
      "status":"1"
    },
    {
      "id":"3",
      "name":"name 3 ",
      "urlImg":"http://192.168.1.17/example-modular/img/3.jpg",
      "status":"1"
    },
    {
      "id":"4",
      "name":"name 4",
      "urlImg":"http://192.168.1.17/example-modular/img/4.jpg",
      "status":"1"
    }
  ]
}